[gd_resource type="Resource" load_steps=8 format=2]

[ext_resource path="res://singletons/config/quirks/selectors/regex_selector.gd" type="Script" id=1]
[ext_resource path="res://singletons/config/quirks/replacers/expression_replacer.gd" type="Script" id=2]
[ext_resource path="res://singletons/config/quirks/quirkcollection_res.gd" type="Script" id=6]
[ext_resource path="res://singletons/config/quirks/Quirk_res.gd" type="Script" id=7]

[sub_resource type="Resource" id=1]
script = ExtResource( 2 )
expression_code = "if_else(read(\"switch\") == null, true, read(\"switch\"))
store(\"switch\", not line_output(1))
set_result(if_else(read(\"switch\"), selected_text.to_upper(), selected_text.to_lower()))"
keep_variables = true

[sub_resource type="Resource" id=4]
script = ExtResource( 1 )
regex_matcher = "(.)"

[sub_resource type="Resource" id=3]
script = ExtResource( 7 )
enabled = true
randomness = 0.0
selector = SubResource( 4 )
replacer = SubResource( 1 )

[resource]
script = ExtResource( 6 )
name = "Gamzee"
quirks = [ SubResource( 3 ) ]
