[gd_resource type="DynamicFont" load_steps=5 format=2]

[ext_resource path="res://assets/font/source/courier prime/CourierPrime-Bold.ttf" type="DynamicFontData" id=1]
[ext_resource path="res://assets/font/source/GNUfreefont/FreeMonoBold.otf" type="DynamicFontData" id=2]
[ext_resource path="res://assets/font/source/NotoEmoji/NotoEmoji-Medium.ttf" type="DynamicFontData" id=3]
[ext_resource path="res://assets/font/source/unifont/unifont-15.0.06.otf" type="DynamicFontData" id=4]

[resource]
size = 13
use_mipmaps = true
font_data = ExtResource( 1 )
fallback/0 = ExtResource( 3 )
fallback/1 = ExtResource( 2 )
fallback/2 = ExtResource( 4 )
